{
	"id": "2e394d17-9959-4c5b-bca1-cfc13cb7c9bb",
	"name": "hr-local-env",
	"values": [
		{
			"key": "url",
			"value": "localhost:8080",
			"enabled": true
		},
		{
			"key": "id",
			"value": "42302527-0b00-4044-abee-289b7c07582e",
			"enabled": true
		}
	],
	"_postman_variable_scope": "environment",
	"_postman_exported_at": "2020-03-25T16:29:30.401Z",
	"_postman_exported_using": "Postman/7.16.1"
}